<?xml version="1.0" encoding="utf-8"?>
<!-- Generator: Adobe Illustrator 19.1.0, SVG Export Plug-In . SVG Version: 6.00 Build 0)  -->
<svg version="1.1" id="Layer_1" xmlns="http://www.w3.org/2000/svg" xmlns:xlink="http://www.w3.org/1999/xlink" x="0px" y="0px"
	 viewBox="0 0 500 500" style="enable-background:new 0 0 500 500;" xml:space="preserve">
<style type="text/css">
	.st0{fill:#222222;}
	.st1{fill:#9C8C38;}
	.st2{fill:#29AAE1;}
</style>
<g id="XMLID_85_">
	<path id="XMLID_3_" class="st0" d="M63.62,0.62h63.68l28.96,242.48h-50.07l-5.44-66.08H77.93l-7.5,66.08H27.51L63.62,0.62z
		 M97.67,142.3l-6.47-99.45h-1.36l-7.83,99.45H97.67z"/>
	<path id="XMLID_4_" class="st0" d="M161.37,0.62h56.53c29.64,0,56.54,11.92,56.54,44.27v153.94c0,32.35-26.9,44.27-56.54,44.27
		h-56.53V0.62z M209.39,208.37h8.51c7.49,0,8.51-9.19,8.51-16.01v-141c0-6.81-1.02-16-8.51-16h-8.51V208.37z"/>
	<path id="XMLID_115_" class="st1" d="M134.09,405.62v52.64c0,30.5-25.36,41.73-53.29,41.73c-27.93,0-53.29-11.24-53.29-41.73
		V304.19c0-30.48,25.37-41.72,53.29-41.72c27.92,0,53.29,11.24,53.29,41.72v43.34H88.82v-35.95c0-6.42-0.96-15.09-8.02-15.09
		c-7.06,0-8.02,8.67-8.02,15.09v139.31c0,6.42,0.96,15.09,8.02,15.09c7.06,0,8.02-8.67,8.02-15.09v-45.26H134.09z"/>
	<polygon id="XMLID_94_" class="st1" points="146.28,495.5 146.28,266.96 191.54,266.96 191.54,462.76 231.67,462.76 231.67,495.5 	
		"/>
	<path id="XMLID_93_" class="st1" d="M349.77,458.26c0,30.5-25.35,41.74-53.28,41.74c-27.92,0-53.29-11.24-53.29-41.74v-191.3h45.27
		v183.92c0,6.42,0.96,15.09,8.02,15.09c7.06,0,8.02-8.67,8.02-15.09V266.96h45.26V458.26z"/>
	<path id="XMLID_7_" class="st1" d="M365.91,266.96h53.29c27.93,0,53.29,11.23,53.29,46.22v17.34c0,21.83-5.14,37.24-34.02,43.02
		v0.97c23.43,2.24,34.02,13.16,34.02,49.74v19.9c0,39.17-18.29,51.36-53.29,51.36h-53.29V266.96z M427.23,314.14
		c0-10.91-3.22-14.44-10.6-14.44h-5.45v62.27h5.45c7.38,0,10.6-3.53,10.6-14.44V314.14z M411.18,462.76h5.45
		c7.38,0,10.6-1.93,10.6-10.92v-50.71c0-9-3.22-10.92-10.6-10.92h-5.45V462.76z"/>
	<path id="XMLID_88_" class="st2" d="M358.46,197.75h-27.31c-4.75,0-11.17,0.71-11.17,5.94c0,5.23,6.42,5.94,11.17,5.94
		c47.27-0.95,31.59-46.55,93.81-46.55h14.73c22.57,0,30.89,18.76,30.89,39.42c0,20.66-8.32,39.44-30.89,39.44h-38.95v-33.5h33.48
		c4.76,0,11.17-0.71,11.17-5.93c0-5.22-6.42-5.94-11.17-5.94c-54.39,0.71-48.45,46.55-87.4,46.55h-21.13
		c-22.56,0-30.87-18.76-30.87-39.43c0-20.67,8.32-39.43,30.87-39.43h32.78V197.75z"/>
	<polygon id="XMLID_87_" class="st2" points="467.24,97.88 467.24,131.37 322.37,131.37 322.37,153.94 298.14,153.94 298.14,75.31 
		322.37,75.31 322.37,97.88 	"/>
	<polygon id="XMLID_86_" class="st2" points="467.24,63.18 298.13,63.18 298.13,29.68 443.02,29.68 443.02,0 467.24,0 	"/>
</g>
</svg>
